701, 58, 54, 92, 204, 68
702, 92, 60, 72, 224, 74.6666666666667
703, 76, 96, 74, 246, 82
704, 92, 98, 82, 272, 90.6666666666667
705, 76, 62, 64, 202, 67.3333333333333
706, 96, 94, 66, 256, 85.3333333333333
707, 74, 82, 82, 238, 79.3333333333333
708, 86, 78, 84, 248, 82.6666666666667
709, 88, 80, 56, 224, 74.6666666666667
710, 64, 78, 90, 232, 77.3333333333333
711, 56, 62, 88, 206, 68.6666666666667
712, 94, 88, 64, 246, 82
713, 88, 94, 74, 256, 85.3333333333333
714, 72, 80, 80, 232, 77.3333333333333
715, 92, 56, 58, 206, 68.6666666666667
716, 82, 90, 98, 270, 90
717, 76, 72, 94, 242, 80.6666666666667
718, 74, 58, 78, 210, 70
719, 90, 70, 76, 236, 78.6666666666667
720, 56, 56, 80, 192, 64
721, 66, 60, 70, 196, 65.3333333333333
722, 84, 86, 84, 254, 84.6666666666667
723, 94, 82, 74, 250, 83.3333333333333
724, 100, 60, 50, 210, 70
725, 92, 52, 52, 196, 65.3333333333333
726, 52, 94, 72, 218, 72.6666666666667
727, 76, 56, 90, 222, 74
728, 56, 88, 56, 200, 66.6666666666667
729, 94, 84, 56, 234, 78
730, 60, 54, 68, 182, 60.6666666666667
731, 90, 80, 90, 260, 86.6666666666667
732, 94, 54, 70, 218, 72.6666666666667
733, 60, 58, 70, 188, 62.6666666666667
734, 74, 88, 58, 220, 73.3333333333333
735, 76, 76, 62, 214, 71.3333333333333
736, 94, 80, 56, 230, 76.6666666666667
737, 76, 88, 78, 242, 80.6666666666667
738, 52, 82, 98, 232, 77.3333333333333
739, 92, 60, 72, 224, 74.6666666666667
740, 64, 90, 52, 206, 68.6666666666667
741, 80, 84, 78, 242, 80.6666666666667
742, 56, 60, 78, 194, 64.6666666666667
743, 60, 98, 96, 254, 84.6666666666667
744, 82, 92, 84, 258, 86
745, 52, 52, 68, 172, 57.3333333333333
746, 80, 80, 62, 222, 74
747, 94, 100, 52, 246, 82
748, 100, 84, 64, 248, 82.6666666666667
749, 90, 86, 100, 276, 92
750, 90, 52, 94, 236, 78.6666666666667
751, 98, 96, 70, 264, 88
752, 68, 96, 54, 218, 72.6666666666667
753, 80, 70, 66, 216, 72
754, 84, 84, 82, 250, 83.3333333333333
755, 58, 96, 96, 250, 83.3333333333333
756, 94, 50, 80, 224, 74.6666666666667
757, 80, 60, 80, 220, 73.3333333333333
758, 60, 70, 90, 220, 73.3333333333333
759, 100, 80, 100, 280, 93.3333333333333
760, 64, 66, 74, 204, 68
761, 80, 70, 96, 246, 82
762, 52, 84, 96, 232, 77.3333333333333
763, 64, 84, 56, 204, 68
764, 64, 50, 60, 174, 58
765, 96, 60, 66, 222, 74
766, 70, 92, 88, 250, 83.3333333333333
767, 68, 96, 86, 250, 83.3333333333333
768, 70, 60, 92, 222, 74
769, 64, 88, 76, 228, 76
770, 80, 68, 66, 214, 71.3333333333333
771, 54, 66, 54, 174, 58
772, 92, 54, 64, 210, 70
773, 86, 56, 62, 204, 68
774, 52, 78, 66, 196, 65.3333333333333
775, 74, 66, 60, 200, 66.6666666666667
776, 68, 64, 60, 192, 64
777, 74, 78, 88, 240, 80
778, 62, 96, 68, 226, 75.3333333333333
779, 90, 60, 60, 210, 70
780, 54, 88, 96, 238, 79.3333333333333
781, 68, 84, 66, 218, 72.6666666666667
782, 90, 60, 84, 234, 78
783, 58, 54, 56, 168, 56
784, 52, 86, 84, 222, 74
785, 76, 66, 68, 210, 70
786, 70, 96, 94, 260, 86.6666666666667
787, 82, 96, 74, 252, 84
788, 68, 56, 90, 214, 71.3333333333333
789, 78, 92, 70, 240, 80
790, 86, 52, 94, 232, 77.3333333333333
