101, 54, 98, 64, 216, 72
102, 94, 96, 66, 256, 85.3333333333333
103, 82, 96, 94, 272, 90.6666666666667
104, 78, 72, 90, 240, 80
105, 78, 78, 54, 210, 70
106, 94, 86, 62, 242, 80.6666666666667
107, 60, 60, 98, 218, 72.6666666666667
108, 72, 92, 60, 224, 74.6666666666667
109, 92, 54, 78, 224, 74.6666666666667
110, 86, 90, 78, 254, 84.6666666666667
111, 86, 70, 86, 242, 80.6666666666667
112, 68, 86, 80, 234, 78
113, 84, 94, 74, 252, 84
114, 66, 70, 96, 232, 77.3333333333333
115, 98, 56, 50, 204, 68
116, 70, 64, 72, 206, 68.6666666666667
117, 56, 98, 100, 254, 84.6666666666667
118, 98, 52, 62, 212, 70.6666666666667
119, 96, 82, 56, 234, 78
120, 54, 50, 92, 196, 65.3333333333333
121, 86, 96, 54, 236, 78.6666666666667
122, 66, 92, 52, 210, 70
123, 56, 60, 92, 208, 69.3333333333333
124, 74, 60, 92, 226, 75.3333333333333
125, 90, 94, 90, 274, 91.3333333333333
126, 52, 74, 86, 212, 70.6666666666667
127, 60, 72, 90, 222, 74
128, 58, 80, 94, 232, 77.3333333333333
129, 78, 88, 66, 232, 77.3333333333333
130, 74, 72, 54, 200, 66.6666666666667
131, 74, 80, 94, 248, 82.6666666666667
132, 82, 80, 74, 236, 78.6666666666667
133, 90, 82, 64, 236, 78.6666666666667
134, 98, 64, 54, 216, 72
135, 80, 82, 88, 250, 83.3333333333333
136, 56, 60, 58, 174, 58
137, 72, 94, 60, 226, 75.3333333333333
138, 70, 94, 78, 242, 80.6666666666667
139, 52, 78, 66, 196, 65.3333333333333
140, 62, 88, 54, 204, 68
141, 86, 80, 88, 254, 84.6666666666667
142, 90, 100, 80, 270, 90
143, 98, 58, 64, 220, 73.3333333333333
144, 66, 62, 92, 220, 73.3333333333333
145, 72, 62, 58, 192, 64
146, 84, 78, 98, 260, 86.6666666666667
147, 56, 72, 78, 206, 68.6666666666667
148, 58, 52, 78, 188, 62.6666666666667
149, 94, 54, 86, 234, 78
150, 66, 80, 50, 196, 65.3333333333333
151, 58, 80, 96, 234, 78
152, 60, 62, 84, 206, 68.6666666666667
153, 66, 90, 84, 240, 80
154, 56, 58, 52, 166, 55.3333333333333
155, 94, 56, 82, 232, 77.3333333333333
156, 68, 98, 82, 248, 82.6666666666667
157, 70, 68, 50, 188, 62.6666666666667
158, 68, 56, 66, 190, 63.3333333333333
159, 76, 78, 78, 232, 77.3333333333333
160, 60, 94, 96, 250, 83.3333333333333
161, 96, 82, 78, 256, 85.3333333333333
162, 64, 58, 82, 204, 68
163, 96, 62, 100, 258, 86
164, 74, 68, 88, 230, 76.6666666666667
165, 64, 98, 64, 226, 75.3333333333333
166, 76, 64, 96, 236, 78.6666666666667
167, 94, 76, 56, 226, 75.3333333333333
168, 52, 96, 62, 210, 70
169, 100, 88, 74, 262, 87.3333333333333
170, 80, 84, 84, 248, 82.6666666666667
171, 56, 56, 96, 208, 69.3333333333333
172, 88, 62, 76, 226, 75.3333333333333
173, 74, 80, 98, 252, 84
174, 52, 72, 86, 210, 70
175, 82, 96, 50, 228, 76
176, 62, 56, 56, 174, 58
177, 52, 100, 64, 216, 72
178, 82, 66, 68, 216, 72
179, 90, 92, 86, 268, 89.3333333333333
180, 68, 64, 70, 202, 67.3333333333333
181, 58, 66, 80, 204, 68
182, 66, 66, 62, 194, 64.6666666666667
183, 94, 76, 88, 258, 86
184, 88, 54, 84, 226, 75.3333333333333
185, 98, 92, 54, 244, 81.3333333333333
186, 70, 70, 50, 190, 63.3333333333333
187, 60, 88, 84, 232, 77.3333333333333
188, 68, 78, 84, 230, 76.6666666666667
189, 70, 76, 90, 236, 78.6666666666667
190, 78, 98, 70, 246, 82
