901,96,90,74
902,84,90,58
903,68,84,88
904,50,88,78
905,92,64,74
906,70,72,92
907,84,68,60
908,98,80,94
909,66,54,90
910,84,82,86
911,92,98,92
912,98,80,94
913,98,86,86
914,68,60,84
915,54,86,54
916,58,78,72
917,86,54,56
918,54,82,68
919,60,98,60
920,80,68,84
921,68,84,54
922,52,58,90
923,86,94,86
924,80,72,86
925,54,64,58
926,78,94,94
927,90,56,76
928,68,98,76
929,80,88,66
930,74,88,82
931,82,66,68
932,52,52,76
933,80,52,78
934,64,74,84
935,88,54,82
936,70,98,68
937,62,84,54
938,68,92,62
939,58,100,86
940,76,74,70
941,74,62,56
942,54,98,56
943,68,52,62
944,80,98,92
945,64,76,84
946,92,80,94
947,94,60,90
948,98,62,54
949,78,66,76
950,56,94,52
951,90,54,78
952,60,90,62
953,78,84,58
954,76,52,96
955,56,80,86
956,62,52,66
957,78,66,70
958,92,82,64
959,78,76,100
960,52,76,82
961,80,62,58
962,60,90,94
963,64,56,84
964,72,62,96
965,86,68,56
966,94,92,82
967,68,66,62
968,60,76,78
969,82,98,72
970,64,80,64
971,62,76,58
972,74,96,90
973,86,96,90
974,92,96,98
975,82,56,54
976,74,56,64
977,58,84,86
978,68,84,60
979,70,70,86
980,82,78,92
981,72,50,74
982,72,62,86
983,88,62,70
984,66,58,96
985,90,76,68
986,64,78,70
987,74,58,94
988,58,58,98
989,78,94,92
990,98,54,76
