301, 78, 56, 90, 224, 74.6666666666667
302, 72, 98, 74, 244, 81.3333333333333
303, 82, 96, 80, 258, 86
304, 80, 78, 74, 232, 77.3333333333333
305, 86, 84, 62, 232, 77.3333333333333
306, 94, 74, 82, 250, 83.3333333333333
307, 86, 82, 54, 222, 74
308, 62, 74, 90, 226, 75.3333333333333
309, 66, 74, 72, 212, 70.6666666666667
310, 62, 56, 54, 172, 57.3333333333333
311, 50, 86, 92, 228, 76
312, 76, 80, 72, 228, 76
313, 78, 98, 100, 276, 92
314, 80, 58, 62, 200, 66.6666666666667
315, 50, 62, 62, 174, 58
316, 60, 52, 50, 162, 54
317, 52, 64, 94, 210, 70
318, 68, 74, 74, 216, 72
319, 62, 66, 82, 210, 70
320, 100, 58, 74, 232, 77.3333333333333
321, 52, 70, 90, 212, 70.6666666666667
322, 74, 80, 92, 246, 82
323, 82, 60, 54, 196, 65.3333333333333
324, 88, 66, 76, 230, 76.6666666666667
325, 84, 56, 74, 214, 71.3333333333333
326, 92, 60, 62, 214, 71.3333333333333
327, 78, 54, 72, 204, 68
328, 72, 60, 92, 224, 74.6666666666667
329, 62, 84, 60, 206, 68.6666666666667
330, 68, 66, 64, 198, 66
331, 90, 78, 90, 258, 86
332, 76, 78, 88, 242, 80.6666666666667
333, 72, 76, 82, 230, 76.6666666666667
334, 70, 80, 92, 242, 80.6666666666667
335, 96, 64, 98, 258, 86
336, 66, 84, 68, 218, 72.6666666666667
337, 50, 70, 56, 176, 58.6666666666667
338, 70, 72, 52, 194, 64.6666666666667
339, 50, 80, 60, 190, 63.3333333333333
340, 98, 64, 98, 260, 86.6666666666667
341, 82, 64, 94, 240, 80
342, 90, 98, 88, 276, 92
343, 86, 58, 78, 222, 74
344, 84, 70, 84, 238, 79.3333333333333
345, 82, 58, 76, 216, 72
346, 80, 76, 94, 250, 83.3333333333333
347, 94, 94, 100, 288, 96
348, 92, 66, 96, 254, 84.6666666666667
349, 58, 70, 56, 184, 61.3333333333333
350, 88, 76, 96, 260, 86.6666666666667
351, 78, 74, 62, 214, 71.3333333333333
352, 84, 88, 66, 238, 79.3333333333333
353, 100, 56, 66, 222, 74
354, 60, 80, 76, 216, 72
355, 90, 66, 100, 256, 85.3333333333333
356, 70, 88, 64, 222, 74
357, 76, 70, 56, 202, 67.3333333333333
358, 66, 54, 70, 190, 63.3333333333333
359, 98, 90, 98, 286, 95.3333333333333
360, 98, 82, 76, 256, 85.3333333333333
361, 80, 98, 82, 260, 86.6666666666667
362, 82, 56, 96, 234, 78
363, 72, 98, 70, 240, 80
364, 60, 80, 70, 210, 70
365, 78, 84, 64, 226, 75.3333333333333
366, 74, 52, 50, 176, 58.6666666666667
367, 98, 88, 82, 268, 89.3333333333333
368, 92, 62, 56, 210, 70
369, 90, 62, 70, 222, 74
370, 94, 86, 98, 278, 92.6666666666667
371, 68, 52, 74, 194, 64.6666666666667
372, 90, 80, 82, 252, 84
373, 94, 60, 60, 214, 71.3333333333333
374, 52, 98, 90, 240, 80
375, 96, 66, 90, 252, 84
376, 86, 88, 70, 244, 81.3333333333333
377, 56, 74, 90, 220, 73.3333333333333
378, 98, 50, 94, 242, 80.6666666666667
379, 94, 88, 88, 270, 90
380, 78, 90, 94, 262, 87.3333333333333
381, 78, 78, 60, 216, 72
382, 72, 94, 78, 244, 81.3333333333333
383, 96, 88, 54, 238, 79.3333333333333
384, 82, 78, 92, 252, 84
385, 92, 94, 90, 276, 92
386, 92, 98, 96, 286, 95.3333333333333
387, 66, 54, 76, 196, 65.3333333333333
388, 100, 88, 62, 250, 83.3333333333333
389, 58, 70, 52, 180, 60
390, 80, 96, 92, 268, 89.3333333333333
