801,54,80,70
802,66,82,94
803,100,84,56
804,76,62,60
805,52,72,94
806,54,86,80
807,50,70,64
808,66,74,92
809,72,52,78
810,78,62,68
811,66,72,52
812,62,98,54
813,66,60,84
814,74,70,62
815,88,56,84
816,64,64,84
817,96,74,58
818,88,86,82
819,80,88,58
820,78,94,82
821,66,72,72
822,88,60,90
823,58,90,74
824,88,88,76
825,98,76,100
826,52,76,68
827,56,58,86
828,92,82,88
829,60,78,86
830,70,82,58
831,98,88,64
832,52,58,98
833,90,50,96
834,94,56,74
835,60,56,86
836,82,92,60
837,82,78,62
838,90,72,86
839,96,74,90
840,82,78,82
841,54,86,58
842,66,92,50
843,62,96,66
844,52,62,76
845,72,62,52
846,62,82,74
847,54,80,86
848,78,88,54
849,96,58,66
850,78,56,86
851,58,58,74
852,64,92,70
853,66,94,66
854,84,70,96
855,94,80,66
856,86,68,60
857,84,84,90
858,66,80,98
859,98,76,100
860,54,70,84
861,84,84,90
862,82,94,54
863,52,58,70
864,82,96,88
865,60,68,60
866,90,84,56
867,88,60,88
868,56,94,72
869,94,92,80
870,76,66,66
871,70,60,74
872,82,100,86
873,56,62,86
874,62,84,60
875,88,52,86
876,52,56,60
877,88,58,92
878,92,66,60
879,96,78,90
880,66,86,52
881,74,76,92
882,54,62,86
883,64,78,70
884,74,84,72
885,70,76,76
886,78,68,92
887,86,92,86
888,70,86,58
889,74,78,94
890,66,86,72
